…
tidy_study_data = data.frame(participants = load_study_data) |> 
  mutate(
    file_contents = map(participants, ~read.csv(file.path("./data", .)))) |> 
  separate(participants, into = c("control", "subject_id")) |> 
  unnest(file_contents) |> 
  mutate(control = recode(control, `con` = "control", `exp` = "experiment")) |> 
  pivot_longer(week_1:week_8,
               names_to = "week", 
               values_to = "observation")

tidy_study_data
```

    ## # A tibble: 160 × 4
    ##    control subject_id week   observation
    ##    <chr>   <chr>      <chr>        <dbl>
    ##  1 control 01         week_1        0.2 
    ##  2 control 01         week_2       -1.31
    ##  3 control 01         week_3        0.66
    ##  4 control 01         week_4        1.96
    ##  5 control 01         week_5        0.23
    ##  6 control 01         week_6        1.09
    ##  7 control 01         week_7        0.05
    ##  8 control 01         week_8        1.94
    ##  9 control 02         week_1        1.13
    ## 10 control 02         week_2       -0.88
    ## # ℹ 150 more rows
…
